[gd_scene load_steps=4 format=2]

[ext_resource path="res://Fonts/70.tres" type="DynamicFont" id=1]
[ext_resource path="res://Fonts/30.tres" type="DynamicFont" id=2]
[ext_resource path="res://Scripts/AboutToMainMenu.gd" type="Script" id=3]

[node name="ColorRect" type="ColorRect"]
margin_left = -227.0
margin_top = -173.0
margin_right = 1208.0
margin_bottom = 776.0
color = Color( 0.223529, 0.180392, 0.180392, 1 )
__meta__ = {
"_edit_use_anchors_": false
}

[node name="Label" type="Label" parent="."]
margin_left = 637.951
margin_top = 217.317
margin_right = 832.951
margin_bottom = 265.317
custom_fonts/font = ExtResource( 1 )
text = "About"
__meta__ = {
"_edit_use_anchors_": false
}

[node name="Label2" type="Label" parent="."]
margin_left = 319.721
margin_top = 357.184
margin_right = 1177.72
margin_bottom = 522.184
custom_fonts/font = ExtResource( 2 )
text = "Thank you, for playing this game.
This game is the assignment of the Game programming course.
which is where making this game uses the Godot game engine.
Thank you very much for the free assets given by 
craftpix.net and kenney platformerpack
so that the Game and the programming tasks 
of this game can be completed."
__meta__ = {
"_edit_use_anchors_": false
}

[node name="LinkButton" type="LinkButton" parent="."]
margin_left = 569.214
margin_top = 648.139
margin_right = 902.214
margin_bottom = 696.139
custom_fonts/font = ExtResource( 1 )
custom_colors/font_color = Color( 1, 1, 1, 1 )
text = "Main Menu"
underline = 2
script = ExtResource( 3 )
__meta__ = {
"_edit_use_anchors_": false
}
scene_to_load = "MainMenu"
[connection signal="pressed" from="LinkButton" to="LinkButton" method="_on_LinkButton_pressed"]
