[gd_scene load_steps=5 format=2]

[ext_resource path="res://Assets/Ground/snowMid.png" type="Texture" id=1]
[ext_resource path="res://Scripts/Enemy1.gd" type="Script" id=3]

[sub_resource type="SpriteFrames" id=1]
animations = [ {
"frames": [ ExtResource( 1 ) ],
"loop": true,
"name": "idle",
"speed": 5.0
}, {
"frames": [ ExtResource( 1 ), ExtResource( 1 ) ],
"loop": true,
"name": "run",
"speed": 5.0
} ]

[sub_resource type="RectangleShape2D" id=2]
extents = Vector2( 64.4236, 192.884 )

[node name="MovingGround" type="Node2D"]

[node name="KinematicBody2D" type="KinematicBody2D" parent="."]
script = ExtResource( 3 )

[node name="AnimatedSprite" type="AnimatedSprite" parent="KinematicBody2D"]
position = Vector2( -0.540359, -30.2602 )
frames = SubResource( 1 )
animation = "run"

[node name="CollisionShape2D" type="CollisionShape2D" parent="KinematicBody2D"]
position = Vector2( 0.403778, 97.0649 )
shape = SubResource( 2 )
