[gd_scene load_steps=3 format=2]

[ext_resource path="res://Fonts/80.tres" type="DynamicFont" id=1]
[ext_resource path="res://Scripts/Label.gd" type="Script" id=2]

[node name="GUI" type="MarginContainer"]
margin_right = 120.0
margin_bottom = 80.0
__meta__ = {
"_edit_use_anchors_": false
}

[node name="Label" type="Label" parent="."]
margin_top = 12.0
margin_right = 292.0
margin_bottom = 67.0
custom_fonts/font = ExtResource( 1 )
text = "Nyawa : "
script = ExtResource( 2 )
