[gd_resource type="DynamicFont" load_steps=2 format=2]

[ext_resource path="res://Assets/Fonts/Raw/PersonifiedUXRegular.ttf" type="DynamicFontData" id=1]

[resource]
size = 30
font_data = ExtResource( 1 )
